"[run number]","[step]","ticks","length flock-list"
"2","0","500","2"
"2","1","501","3"
"2","2","502","3"
"2","3","503","3"
"2","4","504","3"
"2","5","505","3"
"2","6","506","3"
"2","7","507","3"
"2","8","508","3"
"1","0","500","4"
"2","9","509","3"
"2","10","510","3"
"1","1","501","1"
"2","11","511","3"
"1","2","502","1"
"2","12","512","3"
"1","3","503","1"
"2","13","513","3"
"1","4","504","1"
"2","14","514","3"
"1","5","505","1"
"2","15","515","3"
"1","6","506","1"
"2","16","516","3"
"1","7","507","1"
"2","17","517","3"
"1","8","508","1"
"2","18","518","3"
"1","9","509","1"
"2","19","519","3"
"1","10","510","1"
"2","20","520","3"
"2","21","521","3"
"1","11","511","1"
"2","22","522","3"
"1","12","512","1"
"2","23","523","3"
"1","13","513","1"
"2","24","524","3"
"1","14","514","1"
"2","25","525","3"
"1","15","515","1"
"2","26","526","3"
"1","16","516","1"
"2","27","527","3"
"1","17","517","1"
"2","28","528","3"
"1","18","518","1"
"2","29","529","3"
"1","19","519","1"
"2","30","530","3"
"1","20","520","1"
"2","31","531","3"
"1","21","521","1"
"2","32","532","3"
"1","22","522","1"
"2","33","533","3"
"1","23","523","1"
"2","34","534","3"
"1","24","524","1"
"2","35","535","3"
"1","25","525","1"
"2","36","536","3"
"1","26","526","1"
"1","27","527","1"
"2","37","537","3"
"1","28","528","1"
"2","38","538","3"
"1","29","529","1"
"2","39","539","3"
"1","30","530","1"
"2","40","540","3"
"1","31","531","1"
"2","41","541","3"
"1","32","532","1"
"2","42","542","3"
"2","43","543","3"
"1","33","533","1"
"2","44","544","3"
"1","34","534","1"
"2","45","545","3"
"1","35","535","1"
"2","46","546","3"
"1","36","536","1"
"2","47","547","3"
"1","37","537","1"
"2","48","548","3"
"1","38","538","1"
"2","49","549","3"
"1","39","539","1"
"2","50","550","3"
"1","40","540","1"
"2","51","551","2"
"1","41","541","1"
"2","52","552","2"
"1","42","542","1"
"2","53","553","2"
"1","43","543","1"
"2","54","554","2"
"1","44","544","1"
"2","55","555","2"
"1","45","545","1"
"2","56","556","2"
"1","46","546","1"
"2","57","557","2"
"1","47","547","1"
"2","58","558","2"
"1","48","548","1"
"2","59","559","2"
"1","49","549","1"
"2","60","560","2"
"2","61","561","2"
"1","50","550","1"
"2","62","562","2"
"1","51","551","3"
"2","63","563","2"
"1","52","552","3"
"2","64","564","2"
"1","53","553","3"
"2","65","565","2"
"1","54","554","3"
"2","66","566","2"
"1","55","555","3"
"2","67","567","2"
"1","56","556","3"
"2","68","568","2"
"1","57","557","3"
"2","69","569","2"
"1","58","558","3"
"2","70","570","2"
"1","59","559","3"
"2","71","571","2"
"1","60","560","3"
"2","72","572","2"
"1","61","561","3"
"2","73","573","2"
"1","62","562","3"
"2","74","574","2"
"1","63","563","3"
"2","75","575","2"
"1","64","564","3"
"2","76","576","2"
"1","65","565","3"
"2","77","577","2"
"2","78","578","2"
"1","66","566","3"
"2","79","579","2"
"1","67","567","3"
"2","80","580","2"
"1","68","568","3"
"2","81","581","2"
"1","69","569","3"
"2","82","582","2"
"1","70","570","3"
"2","83","583","2"
"1","71","571","3"
"2","84","584","2"
"1","72","572","3"
"2","85","585","2"
"1","73","573","3"
"2","86","586","2"
"1","74","574","3"
"2","87","587","2"
"1","75","575","3"
"2","88","588","2"
"1","76","576","3"
"2","89","589","2"
"1","77","577","3"
"2","90","590","2"
"1","78","578","3"
"2","91","591","2"
"1","79","579","3"
"2","92","592","2"
"2","93","593","2"
"2","94","594","2"
"2","95","595","2"
"2","96","596","2"
"2","97","597","2"
"1","80","580","3"
"2","98","598","2"
"1","81","581","3"
"2","99","599","2"
"1","82","582","3"
"2","100","600","2"
"1","83","583","3"
"1","84","584","3"
"1","85","585","3"
"1","86","586","3"
"1","87","587","3"
"1","88","588","3"
"1","89","589","3"
"1","90","590","3"
"1","91","591","3"
"1","92","592","3"
"1","93","593","3"
"1","94","594","3"
"1","95","595","3"
"1","96","596","3"
"1","97","597","3"
"1","98","598","3"
"1","99","599","3"
"1","100","600","3"
