BehaviorSpace results (NetLogo 6.0.4),,,,,,,,
flocking.nlogo,,,,,,,,
heading-variance,,,,,,,,
11/21/2018 13:07:41:383 -0500,,,,,,,,
min-pxcor,max-pxcor,min-pycor,max-pycor,,,,,
-35,35,-35,35,,,,,
[run number],max-cohere-turn,max-separate-turn,vision,minimum-separation,population,max-align-turn,[step],variance-heading
1,3,1.5,5,1,150,5,601,0.164206665
4,3,1.5,5,2,150,5,601,0.432045379
3,3,1.5,5,1,150,5,601,0.224389663
2,3,1.5,5,1,150,5,601,0.166433044
8,3,1.5,5,3,150,5,601,0.226125727
6,3,1.5,5,2,150,5,601,0.180040732
5,3,1.5,5,2,150,5,601,0.144739419
7,3,1.5,5,3,150,5,601,0.169765595
11,3,1.5,5,4,150,5,601,0.189584491
9,3,1.5,5,3,150,5,601,0.191017024
10,3,1.5,5,4,150,5,601,0.149572355
12,3,1.5,5,4,150,5,601,0.258567075
14,3,3,5,1,150,5,601,0.180684194
13,3,3,5,1,150,5,601,0.207657471
15,3,3,5,1,150,5,601,0.162482839
16,3,3,5,2,150,5,601,0.243739978
17,3,3,5,2,150,5,601,0.261828403
19,3,3,5,3,150,5,601,0.203302598
18,3,3,5,2,150,5,601,0.176805574
20,3,3,5,3,150,5,601,0.1650687
21,3,3,5,3,150,5,601,0.204791261
22,3,3,5,4,150,5,601,0.261504955
23,3,3,5,4,150,5,601,0.264195709
24,3,3,5,4,150,5,601,0.173360632
25,3,4.5,5,1,150,5,601,0.211894095
27,3,4.5,5,1,150,5,601,0.402057842
26,3,4.5,5,1,150,5,601,0.164075912
28,3,4.5,5,2,150,5,601,0.173629686
29,3,4.5,5,2,150,5,601,0.176226141
30,3,4.5,5,2,150,5,601,0.163256469
31,3,4.5,5,3,150,5,601,0.20401069
32,3,4.5,5,3,150,5,601,0.261052735
33,3,4.5,5,3,150,5,601,0.343711594
34,3,4.5,5,4,150,5,601,0.197782437
35,3,4.5,5,4,150,5,601,0.214410066
36,3,4.5,5,4,150,5,601,0.177241638
37,3,6,5,1,150,5,601,0.183407356
38,3,6,5,1,150,5,601,0.306242803
39,3,6,5,1,150,5,601,0.188776168
40,3,6,5,2,150,5,601,0.213473346
41,3,6,5,2,150,5,601,0.173140729
42,3,6,5,2,150,5,601,0.189801368
43,3,6,5,3,150,5,601,0.171487709
44,3,6,5,3,150,5,601,0.220910948
45,3,6,5,3,150,5,601,0.188503599
47,3,6,5,4,150,5,601,0.162045219
46,3,6,5,4,150,5,601,0.156299747
48,3,6,5,4,150,5,601,0.172963842