 0 1 9 3 -1 5 0 0 3 11 0 25 25 25 25 100 0.01 0 0.6944444444444444 25 24 24 24 3 0 8 42 0 0 0.4329896907216495 0.36 0.4166666666666667 0.375 0.5833333333333334 0.3333333333333333 0 0.4 0.4444444444444444 0.42857142857142855 0.36 0.4166666666666667 0.375 0.5833333333333334 0.12 0.625 0.7916666666666666 1.0416666666666667 9.7182531580755 2.7026556987687047 1.8616485372932559 1.991285361595456 19.3 3.0698929011029725
 0 1 9 3 -1 5 0 0 3 11 0 25 25 25 25 342 0.01 0 2.375 25 24 24 24 3 0 8 42 0 0 0.4329896907216495 0.36 0.4166666666666667 0.375 0.5833333333333334 0.3333333333333333 0 0.4 0.4444444444444444 0.42857142857142855 0.36 0.4166666666666667 0.375 0.5833333333333334 0.12 0.625 0.7916666666666666 1.0416666666666667 9.7182531580755 2.7026556987687047 1.8616485372932559 1.991285361595456 19.3 3.0698929011029725
 0 1 9 3 -1 5 0 1 3 11 0 25 25 25 25 342 0.01 0 2.375 25 24 24 24 3 0 8 42 0 0 0.4329896907216495 0.36 0.4166666666666667 0.375 0.5833333333333334 0.3333333333333333 0 0.4 0.4444444444444444 0.42857142857142855 0.36 0.4166666666666667 0.375 0.5833333333333334 0.12 0.625 0.7916666666666666 1.0416666666666667 9.7182531580755 2.7026556987687047 1.8616485372932559 1.991285361595456 19.3 3.0698929011029725
 0 1 9 3 -1 5 0 1 3 50 0 25 25 25 25 342 0.01 0 0.1314878892733564 25 24 24 24 3 0 0 2 0.0029239766081871343 0 0.020618556701030927 0 0.041666666666666664 0 0.041666666666666664 0 0 0 0 0 0 0.041666666666666664 0 0.041666666666666664 0 0 0 0 -99 -99 -99 -99 1.1 0.9587449708822048
 0 1 9 3 -1 5 0 1 3 50 0 25 25 25 25 342 0.01 0 0.1314878892733564 25 24 24 24 3 0 0 2 0.0029239766081871343 0 0.020618556701030927 0 0.041666666666666664 0 0.041666666666666664 0 0 0 0 0 0 0.041666666666666664 0 0.041666666666666664 0 0 0 0 -99 -99 -99 -99 1.1 0.9587449708822048
 0 1000 9 3 -1 5 0 1 3 50 0 25 25 25 25 342 0.01 0 0.1314878892733564 189 37 116 0 2153 2395 13297 221082 0.009242690058479532 0 0.7485380116959064 0.746031746031746 0.43243243243243246 0.853448275862069 0 0.4375 0.5390070921985816 0.125 0.3434343434343434 0 0.7820825133719455 0.6559513949788763 0.8282960776153739 -99 2.2569717820786077 2.7909357788100757 2.33818257159508 -99 0.32135474273651093 0.3584916332183064 0.2416841711601961 -99 32.83040935672515 25.938352571872898
 0 1 9 3 -1 5 0 1 3 50 0 25 25 25 25 342 0.01 0 0.1314878892733564 25 24 24 24 3 0 0 2 0.0029239766081871343 0 0.020618556701030927 0 0.041666666666666664 0 0.041666666666666664 0 0 0 0 0 0 0.041666666666666664 0 0.041666666666666664 0 0 0 0 -99 -99 -99 -99 1.1 0.9587449708822048
 0 1 9 3 -1 5 0 1 3 50 0 25 25 25 25 342 0.01 0 0.1314878892733564 25 24 24 24 3 0 0 2 0.0029239766081871343 0 0.020618556701030927 0 0.041666666666666664 0 0.041666666666666664 0 0 0 0 0 0 0.041666666666666664 0 0.041666666666666664 0 0 0 0 -99 -99 -99 -99 1.1 0.9587449708822048
 0 1 9 3 -1 5 0 1 3 50 0 40 40 40 40 342 0.01 0 0.1314878892733564 40 39 40 38 3 0 2 16 0.0029239766081871343 0 0.10191082802547771 0.1 0.10256410256410256 0.05 0.15789473684210525 0.25 0 0.5 0 0.3333333333333333 0.1 0.10256410256410256 0.05 0.15789473684210525 0.1 0 0.15 0.2631578947368421 7.089175569585669 -99 4.414428557263048 4.299591432506869 1.75 1.2027222790416516
 0 1 9 3 -1 5 0 1 3 50 0 40 40 40 40 342 0.01 0 0.1314878892733564 40 39 40 38 3 0 2 16 0.0029239766081871343 0 0.10191082802547771 0.1 0.10256410256410256 0.05 0.15789473684210525 0.25 0 0.5 0 0.3333333333333333 0.1 0.10256410256410256 0.05 0.15789473684210525 0.1 0 0.15 0.2631578947368421 7.089175569585669 -99 4.414428557263048 4.299591432506869 1.75 1.2027222790416516
 0 1 9 3 -1 5 0 1 3 50 0 40 40 40 40 342 0.01 0 0.1314878892733564 40 39 40 38 3 0 2 16 0.0029239766081871343 0 0.10191082802547771 0.1 0.10256410256410256 0.05 0.15789473684210525 0.25 0 0.5 0 0.3333333333333333 0.1 0.10256410256410256 0.05 0.15789473684210525 0.1 0 0.15 0.2631578947368421 7.089175569585669 -99 4.414428557263048 4.299591432506869 1.75 1.2027222790416516
 0 1 9 3 -1 5 0 0 3 50 0 78 81 80 81 378 0.01 0 0.1453287197231834 76 79 79 79 7 0 10 34 0.0026455026455026454 0 0.10223642172523961 0.11842105263157894 0.0759493670886076 0.11392405063291139 0.10126582278481013 0.125 0.2222222222222222 0 0.2222222222222222 0 0.11842105263157894 0.0759493670886076 0.11392405063291139 0.11392405063291139 0.09210526315789473 0.25316455696202533 0.08860759493670886 0.379746835443038 7.964068969931333 4.357795843701789 8.120140538516175 3.5103631681992096 3.45 1.6826609766623957
 0 1000 9 3 -1 5 0 0 3 50 0 78 81 80 81 378 0.01 0 0.1453287197231834 163 0 215 0 2850 2908 8959 206550 0.009767195767195766 0 0.7037037037037037 0.6503067484662577 0 0.7441860465116279 0 0.6090225563909775 0.5094339622641509 0 0.675 0 0.6833381150018472 -99 0.7017539724555746 -99 2.042302418341849 -99 2.0879108079677655 -99 0.4167627344304762 -99 0.41616264816972987 -99 5.783068783068783 3.627997394348508
 0 2000 9 3 -1 5 0 0 3 50 0 78 81 80 81 378 0.01 0 0.1453287197231834 24 0 354 0 6028 6086 11657 481416 0.009857142857142858 0 0.7407407407407407 0.6666666666666666 0 0.7457627118644068 0 0.9 0.125 0 0.946969696969697 0 0.7092533395887677 -99 0.7516966785382764 -99 2.116553642520684 -99 2.237826042814436 -99 0.4393058041885123 -99 0.38876767828240916 -99 5.423280423280423 2.978381493199312
 0 1 9 3 -1 5 0 1 3 50 0 78 81 80 81 378 0.01 0 0.1453287197231834 76 79 79 79 7 0 10 34 0.0026455026455026454 0 0.10223642172523961 0.11842105263157894 0.0759493670886076 0.11392405063291139 0.10126582278481013 0.125 0.2222222222222222 0 0.2222222222222222 0 0.11842105263157894 0.0759493670886076 0.11392405063291139 0.11392405063291139 0.09210526315789473 0.25316455696202533 0.08860759493670886 0.379746835443038 7.964068969931333 4.357795843701789 8.120140538516175 3.5103631681992096 3.45 1.6826609766623957
 0 1000 9 3 -1 5 0 1 3 50 0 78 81 80 81 378 0.01 0 0.1453287197231834 83 0 295 0 2640 2698 11971 277678 0.009888888888888888 0 0.9259259259259259 0.9397590361445783 0 0.9220338983050848 0 0.6457142857142857 0.20512820512820512 0 0.7720588235294118 0 0.9186563332311446 -99 0.9334025376104657 -99 2.742315983607347 -99 2.7860031862052317 -99 0.13784793283722033 -99 0.0912820342979464 -99 111.05820105820106 50.37295176415882
